C:\projects\devonfw-ide-scripts-2020.04.001\workspaces\main\jumpthequeue\java\jtqj\api\src\main\java\com\devonfw\application\jtqj\accesscodemanagement\logic\api\usecase\UcManageAccessCode.java
C:\projects\devonfw-ide-scripts-2020.04.001\workspaces\main\jumpthequeue\java\jtqj\api\src\main\java\com\devonfw\application\jtqj\accesscodemanagement\common\api\AccessCode.java
C:\projects\devonfw-ide-scripts-2020.04.001\workspaces\main\jumpthequeue\java\jtqj\api\src\main\java\com\devonfw\application\jtqj\general\common\api\UserProfile.java
C:\projects\devonfw-ide-scripts-2020.04.001\workspaces\main\jumpthequeue\java\jtqj\api\src\main\java\com\devonfw\application\jtqj\visitormanagement\service\api\rest\VisitormanagementRestService.java
C:\projects\devonfw-ide-scripts-2020.04.001\workspaces\main\jumpthequeue\java\jtqj\api\src\main\java\com\devonfw\application\jtqj\queuemanagement\logic\api\to\QueueEto.java
C:\projects\devonfw-ide-scripts-2020.04.001\workspaces\main\jumpthequeue\java\jtqj\api\src\main\java\com\devonfw\application\jtqj\visitormanagement\logic\api\to\VisitorEto.java
C:\projects\devonfw-ide-scripts-2020.04.001\workspaces\main\jumpthequeue\java\jtqj\api\src\main\java\com\devonfw\application\jtqj\visitormanagement\logic\api\Visitormanagement.java
C:\projects\devonfw-ide-scripts-2020.04.001\workspaces\main\jumpthequeue\java\jtqj\api\src\main\java\com\devonfw\application\jtqj\queuemanagement\logic\api\usecase\UcManageQueue.java
C:\projects\devonfw-ide-scripts-2020.04.001\workspaces\main\jumpthequeue\java\jtqj\api\src\main\java\com\devonfw\application\jtqj\general\common\api\ApplicationEntity.java
C:\projects\devonfw-ide-scripts-2020.04.001\workspaces\main\jumpthequeue\java\jtqj\api\src\main\java\com\devonfw\application\jtqj\accesscodemanagement\service\api\rest\AccesscodemanagementRestService.java
C:\projects\devonfw-ide-scripts-2020.04.001\workspaces\main\jumpthequeue\java\jtqj\api\src\main\java\com\devonfw\application\jtqj\general\common\api\NlsBundleApplicationRoot.java
C:\projects\devonfw-ide-scripts-2020.04.001\workspaces\main\jumpthequeue\java\jtqj\api\src\main\java\com\devonfw\application\jtqj\general\common\api\BinaryObject.java
C:\projects\devonfw-ide-scripts-2020.04.001\workspaces\main\jumpthequeue\java\jtqj\api\src\main\java\com\devonfw\application\jtqj\general\common\api\to\AbstractSearchCriteriaTo.java
C:\projects\devonfw-ide-scripts-2020.04.001\workspaces\main\jumpthequeue\java\jtqj\api\src\main\java\com\devonfw\application\jtqj\visitormanagement\logic\api\usecase\UcManageVisitor.java
C:\projects\devonfw-ide-scripts-2020.04.001\workspaces\main\jumpthequeue\java\jtqj\api\src\main\java\com\devonfw\application\jtqj\accesscodemanagement\logic\api\to\AccessCodeSearchCriteriaTo.java
C:\projects\devonfw-ide-scripts-2020.04.001\workspaces\main\jumpthequeue\java\jtqj\api\src\main\java\com\devonfw\application\jtqj\general\common\api\to\UserProfileTo.java
C:\projects\devonfw-ide-scripts-2020.04.001\workspaces\main\jumpthequeue\java\jtqj\api\src\main\java\com\devonfw\application\jtqj\queuemanagement\service\api\rest\QueuemanagementRestService.java
C:\projects\devonfw-ide-scripts-2020.04.001\workspaces\main\jumpthequeue\java\jtqj\api\src\main\java\com\devonfw\application\jtqj\general\common\api\exception\ApplicationBusinessException.java
C:\projects\devonfw-ide-scripts-2020.04.001\workspaces\main\jumpthequeue\java\jtqj\api\src\main\java\com\devonfw\application\jtqj\accesscodemanagement\logic\api\usecase\UcFindAccessCode.java
C:\projects\devonfw-ide-scripts-2020.04.001\workspaces\main\jumpthequeue\java\jtqj\api\src\main\java\com\devonfw\application\jtqj\accesscodemanagement\logic\api\Accesscodemanagement.java
C:\projects\devonfw-ide-scripts-2020.04.001\workspaces\main\jumpthequeue\java\jtqj\api\src\main\java\com\devonfw\application\jtqj\queuemanagement\common\api\Queue.java
C:\projects\devonfw-ide-scripts-2020.04.001\workspaces\main\jumpthequeue\java\jtqj\api\src\main\java\com\devonfw\application\jtqj\general\common\api\exception\NoActiveUserException.java
C:\projects\devonfw-ide-scripts-2020.04.001\workspaces\main\jumpthequeue\java\jtqj\api\src\main\java\com\devonfw\application\jtqj\general\common\api\exception\ApplicationTechnicalException.java
C:\projects\devonfw-ide-scripts-2020.04.001\workspaces\main\jumpthequeue\java\jtqj\api\src\main\java\com\devonfw\application\jtqj\general\service\api\rest\SecurityRestService.java
C:\projects\devonfw-ide-scripts-2020.04.001\workspaces\main\jumpthequeue\java\jtqj\api\src\main\java\com\devonfw\application\jtqj\queuemanagement\logic\api\usecase\UcFindQueue.java
C:\projects\devonfw-ide-scripts-2020.04.001\workspaces\main\jumpthequeue\java\jtqj\api\src\main\java\com\devonfw\application\jtqj\general\logic\api\to\BinaryObjectEto.java
C:\projects\devonfw-ide-scripts-2020.04.001\workspaces\main\jumpthequeue\java\jtqj\api\src\main\java\com\devonfw\application\jtqj\accesscodemanagement\logic\impl\usecase\VisitorEto.java
C:\projects\devonfw-ide-scripts-2020.04.001\workspaces\main\jumpthequeue\java\jtqj\api\src\main\java\com\devonfw\application\jtqj\general\common\api\exception\ApplicationException.java
C:\projects\devonfw-ide-scripts-2020.04.001\workspaces\main\jumpthequeue\java\jtqj\api\src\main\java\com\devonfw\application\jtqj\visitormanagement\common\api\Visitor.java
C:\projects\devonfw-ide-scripts-2020.04.001\workspaces\main\jumpthequeue\java\jtqj\api\src\main\java\com\devonfw\application\jtqj\accesscodemanagement\logic\api\to\AccessCodeEto.java
C:\projects\devonfw-ide-scripts-2020.04.001\workspaces\main\jumpthequeue\java\jtqj\api\src\main\java\com\devonfw\application\jtqj\queuemanagement\logic\api\Queuemanagement.java
C:\projects\devonfw-ide-scripts-2020.04.001\workspaces\main\jumpthequeue\java\jtqj\api\src\main\java\com\devonfw\application\jtqj\visitormanagement\logic\api\usecase\UcFindVisitor.java
C:\projects\devonfw-ide-scripts-2020.04.001\workspaces\main\jumpthequeue\java\jtqj\api\src\main\java\com\devonfw\application\jtqj\accesscodemanagement\logic\api\to\AccessCodeCto.java
C:\projects\devonfw-ide-scripts-2020.04.001\workspaces\main\jumpthequeue\java\jtqj\api\src\main\java\com\devonfw\application\jtqj\visitormanagement\logic\api\to\VisitorSearchCriteriaTo.java
C:\projects\devonfw-ide-scripts-2020.04.001\workspaces\main\jumpthequeue\java\jtqj\api\src\main\java\com\devonfw\application\jtqj\queuemanagement\logic\api\to\QueueSearchCriteriaTo.java
